%YAML 1.1
%TAG !u! tag:unity3d.com,2011:
--- !u!1045 &1
EditorBuildSettings:
  m_ObjectHideFlags: 0
  serializedVersion: 2
  m_Scenes:
  - enabled: 1
    path: Assets/Scenes/MainScene.unity
    guid: e026f22fd87f215429587425b950f12a
  - enabled: 1
    path: Assets/Scenes/R1.3.1 Exteriors.unity
    guid: 376c73b6182f25d478d6729b812de03c
  - enabled: 1
    path: Assets/Scenes/GameOverWin.unity
    guid: 21666013fa46f5546b12ed02335bdbfc
  - enabled: 1
    path: Assets/Scenes/GameOverLose.unity
    guid: afbf24284a844814d9b0a2857b63dd6c
  m_configObjects: {}
